{
    "Version": "2012-10-17",  
    "Statement":
    [    
        {      
            "Effect": "Allow",      
            "Action": [        
                "s3:AbortMultipartUpload",        
                "s3:GetBucketLocation",        
                "s3:GetObject",        
                "s3:ListBucket",        
                "s3:ListBucketMultipartUploads",        
                "s3:PutObject"
            ],      
            "Resource": [        
                "arn:aws:s3:::myactivity",
                "arn:aws:s3:::myactivity/*"		    
            ]    
        },        
        {
            "Effect": "Allow",
            "Action": [
                "kinesis:DescribeStream",
                "kinesis:GetShardIterator",
                "kinesis:GetRecords"
            ],
            "Resource": "arn:aws:kinesis:us-east-2:account-id:stream/stream-name"
        },
        {
           "Effect": "Allow",
           "Action": [
               "kms:Decrypt",
               "kms:GenerateDataKey"
           ],
           "Resource": [
               "arn:aws:kms:us-east-2:account-id:key/key-id"           
           ],
           "Condition": {
               "StringEquals": {
                   "kms:ViaService": "s3.us-east-2.amazonaws.com"
               },
               "StringLike": {
                   "kms:EncryptionContext:aws:s3:arn": "arn:aws:s3:::myactivity/prefix*"
               }
           }
        },
        {
           "Effect": "Allow",
           "Action": [
               "logs:PutLogEvents"
           ],
           "Resource": [
               "arn:aws:logs:us-east-2:account-id:log-group:log-group-name:log-stream:log-stream-name"
           ]
        },
        {
           "Effect": "Allow", 
           "Action": [
               "lambda:InvokeFunction", 
               "lambda:GetFunctionConfiguration" 
           ],
           "Resource": [
               "arn:aws:lambda:us-east-2:account-id:function:function-name:function-version"
           ]
        }
    ]
}